-3.75 4.9886526
-3.5448718 2.3847186
-3.3397436 1.2935625
-3.1346154 0.74276171
-2.9294872 0.5800433
-2.724359 0.72838816
-2.5192308 0.96133457
-2.3141026 1.2537036
-2.1089744 1.4653452
-1.9038462 1.5875573
-1.6987179 1.6544628
-1.4935897 1.5419676
-1.2884615 1.4185741
-1.0833333 1.1760624
-0.8782051 0.82761178
-0.6730769 0.41801516
-0.4679487 0.11268587
-0.2628205 -0.040900235
-0.0576923 -0.083442985
0.1474359 -0.046064978
0.3525641 0.013729123
0.5576923 0.077224734
0.7628205 0.13845488
0.9679487 0.17809668
1.1730769 0.21554203
1.3782051 0.24337443
1.5833333 0.24696467
1.7884615 0.21673407
1.9935897 0.19711387
2.1987179 0.15604616
2.4038462 0.081428235
2.6089744 0.027252793
2.8141026 -0.0022938971
3.0192308 -0.017440922
3.224359 -0.046163599
3.4294872 -0.069372886
3.6346154 -0.056811465
3.8397436 -0.036202558
4.0448718 -0.043106056
4.25 -0.015764353

